{
  "project_info": {
    "project_number": "868979912292",
    "project_id": "demopushnotibyfirebase",
    "storage_bucket": "demopushnotibyfirebase.appspot.com"
  },
  "client": [
    {
      "client_info": {
        "mobilesdk_app_id": "1:868979912292:android:ba7268f76dc7d3ee4a7971",
        "android_client_info": {
          "package_name": "com.example.firebasedemo"
        }
      },
      "oauth_client": [
        {
          "client_id": "868979912292-tbpb3fgb9u81ddd94h42spq4kj3upoaf.apps.googleusercontent.com",
          "client_type": 1,
          "android_info": {
            "package_name": "com.example.firebasedemo",
            "certificate_hash": "a3bd590167726a3992a3cf2d7de684f2fb320778"
          }
        },
        {
          "client_id": "868979912292-v234om3pah3o7ahng9iev4b5qocfl9jh.apps.googleusercontent.com",
          "client_type": 3
        }
      ],
      "api_key": [
        {
          "current_key": "AIzaSyBtJ53ezdKqUAJ7Bdr9AD5h7TmVv1S4_hQ"
        }
      ],
      "services": {
        "appinvite_service": {
          "other_platform_oauth_client": [
            {
              "client_id": "868979912292-v234om3pah3o7ahng9iev4b5qocfl9jh.apps.googleusercontent.com",
              "client_type": 3
            }
          ]
        }
      }
    }
  ],
  "configuration_version": "1"
}